<svg width="22" height="19" viewBox="0 0 22 19" fill="none" xmlns="http://www.w3.org/2000/svg">
    <path d="M20.6302 13.4508H6.67314L7.37392 12.0234L19.0177 12.0023C19.4114 12.0023 19.7489 11.7211 19.8192 11.332L21.4317 2.30625C21.4739 2.06953 21.4106 1.82578 21.256 1.64062C21.1795 1.5495 21.0841 1.4761 20.9765 1.42551C20.8688 1.37492 20.7515 1.34835 20.6325 1.34766L5.82002 1.29844L5.69346 0.703125C5.61377 0.323437 5.27158 0.046875 4.88252 0.046875H1.26143C1.042 0.046875 0.831562 0.134041 0.676405 0.289198C0.521248 0.444355 0.434082 0.654794 0.434082 0.874219C0.434082 1.09364 0.521248 1.30408 0.676405 1.45924C0.831562 1.6144 1.042 1.70156 1.26143 1.70156H4.21221L4.76533 4.33125L6.12705 10.9242L4.37393 13.7859C4.28288 13.9088 4.22805 14.0547 4.21562 14.2071C4.20319 14.3596 4.23368 14.5124 4.30361 14.6484C4.44424 14.9273 4.72783 15.1031 5.04189 15.1031H6.51377C6.19998 15.5199 6.0305 16.0275 6.03096 16.5492C6.03096 17.8758 7.10908 18.9539 8.43564 18.9539C9.76221 18.9539 10.8403 17.8758 10.8403 16.5492C10.8403 16.0266 10.6669 15.518 10.3575 15.1031H14.1333C13.8195 15.5199 13.65 16.0275 13.6505 16.5492C13.6505 17.8758 14.7286 18.9539 16.0552 18.9539C17.3817 18.9539 18.4599 17.8758 18.4599 16.5492C18.4599 16.0266 18.2864 15.518 17.977 15.1031H20.6325C21.0872 15.1031 21.4599 14.7328 21.4599 14.2758C21.4585 14.0566 21.3705 13.8468 21.2151 13.6923C21.0596 13.5377 20.8494 13.4509 20.6302 13.4508ZM6.16455 2.92969L19.6599 2.97422L18.338 10.3758L7.73721 10.3945L6.16455 2.92969ZM8.43564 17.2898C8.02783 17.2898 7.69502 16.957 7.69502 16.5492C7.69502 16.1414 8.02783 15.8086 8.43564 15.8086C8.84346 15.8086 9.17627 16.1414 9.17627 16.5492C9.17627 16.7456 9.09824 16.934 8.95934 17.0729C8.82045 17.2118 8.63207 17.2898 8.43564 17.2898ZM16.0552 17.2898C15.6474 17.2898 15.3145 16.957 15.3145 16.5492C15.3145 16.1414 15.6474 15.8086 16.0552 15.8086C16.463 15.8086 16.7958 16.1414 16.7958 16.5492C16.7958 16.7456 16.7178 16.934 16.5789 17.0729C16.44 17.2118 16.2516 17.2898 16.0552 17.2898Z" fill="black"/>
    </svg>
